4 Practical Day Four – Practicals
…
5 Question 1

── Attaching core tidyverse packages ──────────────────────── tidyverse 2.0.0 ──
✔ dplyr     1.1.4     ✔ readr     2.1.5
✔ forcats   1.0.0     ✔ stringr   1.5.1
✔ ggplot2   3.5.1     ✔ tibble    3.2.1
✔ lubridate 1.9.4     ✔ tidyr     1.3.1
✔ purrr     1.0.2     
── Conflicts ────────────────────────────────────────── tidyverse_conflicts() ──
✖ dplyr::filter() masks stats::filter()
✖ dplyr::lag()    masks stats::lag()
ℹ Use the conflicted package (<http://conflicted.r-lib.org/>) to force all conflicts to become errors

# A tibble: 336,776 × 19
    year month   day dep_time sched_dep_time dep_delay arr_time sched_arr_time
   <int> <int> <int>    <int>          <int>     <dbl>    <int>          <int>
 1  2013     1     1      517            515         2      830            819
 2  2013     1     1      533            529         4      850            830
 3  2013     1     1      542            540         2      923            850
 4  2013     1     1      544            545        -1     1004           1022
 5  2013     1     1      554            600        -6      812            837
 6  2013     1     1      554            558        -4      740            728
 7  2013     1     1      555            600        -5      913            854
 8  2013     1     1      557            600        -3      709            723
 9  2013     1     1      557            600        -3      838            846
10  2013     1     1      558            600        -2      753            745
# ℹ 336,766 more rows
# ℹ 11 more variables: arr_delay <dbl>, carrier <chr>, flight <int>,
#   tailnum <chr>, origin <chr>, dest <chr>, air_time <dbl>, distance <dbl>,
#   hour <dbl>, minute <dbl>, time_hour <dttm>
…
10 Question 6

6.1.

flights |> group_by(origin,dest) |>
  summarise(more_than_one = n_distinct(carrier)) |>
  filter(more_than_one > 1) 

`summarise()` has grouped output by 'origin'. You can override using the
`.groups` argument.

# A tibble: 128 × 3
# Groups:   origin [3]
   origin dest  more_than_one
   <chr>  <chr>         <int>
 1 EWR    ATL               4
 2 EWR    AUS               2
 3 EWR    BDL               2
 4 EWR    BNA               2
 5 EWR    BOS               3
 6 EWR    BWI               2
 7 EWR    CHS               2
 8 EWR    CLE               2
 9 EWR    CLT               3
10 EWR    CVG               2
# ℹ 118 more rows

6.2.

flights |> group_by(origin,dest, carrier) |>
  summarise(avg_arr_delay = mean(arr_delay,na.rm = T)) |>
  select(origin, dest, avg_arr_delay, carrier)

`summarise()` has grouped output by 'origin', 'dest'. You can override using
the `.groups` argument.

# A tibble: 439 × 4
# Groups:   origin, dest [224]
   origin dest  avg_arr_delay carrier
   <chr>  <chr>         <dbl> <chr>  
 1 EWR    ALB           14.4  EV     
 2 EWR    ANC           -2.5  UA     
 3 EWR    ATL           -6.25 9E     
 4 EWR    ATL           10.0  DL     
 5 EWR    ATL           19.5  EV     
 6 EWR    ATL           10.5  UA     
 7 EWR    AUS            4.28 UA     
 8 EWR    AUS          -11.2  WN     
 9 EWR    AVL            8.80 EV     
10 EWR    BDL            6.78 EV     
# ℹ 429 more rows

6.3.

flights_c = flights |> group_by(origin,dest, carrier) |>
  summarise(avg_arr_delay = mean(arr_delay,na.rm = T)) |>
  left_join(airlines, by = "carrier") |>
  select(origin, dest, carrier, name, avg_arr_delay)

`summarise()` has grouped output by 'origin', 'dest'. You can override using
the `.groups` argument.

flights_c

# A tibble: 439 × 5
# Groups:   origin, dest [224]
   origin dest  carrier name                     avg_arr_delay
   <chr>  <chr> <chr>   <chr>                            <dbl>
 1 EWR    ALB   EV      ExpressJet Airlines Inc.         14.4 
 2 EWR    ANC   UA      United Air Lines Inc.            -2.5 
 3 EWR    ATL   9E      Endeavor Air Inc.                -6.25
 4 EWR    ATL   DL      Delta Air Lines Inc.             10.0 
 5 EWR    ATL   EV      ExpressJet Airlines Inc.         19.5 
 6 EWR    ATL   UA      United Air Lines Inc.            10.5 
 7 EWR    AUS   UA      United Air Lines Inc.             4.28
 8 EWR    AUS   WN      Southwest Airlines Co.          -11.2 
 9 EWR    AVL   EV      ExpressJet Airlines Inc.          8.80
10 EWR    BDL   EV      ExpressJet Airlines Inc.          6.78
# ℹ 429 more rows
…
Warning: Returning more (or less) than 1 row per `summarise()` group was deprecated in
dplyr 1.1.0.
ℹ Please use `reframe()` instead.
ℹ When switching from `summarise()` to `reframe()`, remember that `reframe()`
  always returns an ungrouped data frame and adjust accordingly.

best_worst_airlines

# A tibble: 223 × 6
   origin dest  best_airline             best_delay worst_airline    worst_delay
   <chr>  <chr> <chr>                         <dbl> <chr>                  <dbl>
 1 EWR    ALB   ExpressJet Airlines Inc.      14.4  ExpressJet Airl…       14.4 
 2 EWR    ANC   United Air Lines Inc.         -2.5  United Air Line…       -2.5 
 3 EWR    ATL   Endeavor Air Inc.             -6.25 ExpressJet Airl…       19.5 
 4 EWR    AUS   Southwest Airlines Co.       -11.2  United Air Line…        4.28
 5 EWR    AVL   ExpressJet Airlines Inc.       8.80 ExpressJet Airl…        8.80
 6 EWR    BDL   ExpressJet Airlines Inc.       6.78 United Air Line…       22.6 
 7 EWR    BNA   Southwest Airlines Co.        -2.13 ExpressJet Airl…       17.7 
 8 EWR    BOS   ExpressJet Airlines Inc.      -4.01 JetBlue Airways         6.87
 9 EWR    BQN   United Air Lines Inc.         10.9  United Air Line…       10.9 
10 EWR    BTV   ExpressJet Airlines Inc.      12.2  ExpressJet Airl…       12.2 
# ℹ 213 more rows
…
